[
  {
    "ts": "2020-04-02T16:24:02.605Z",
    "level": "error",
    "error": {
      "originalError": {
        "name": "NotFound",
        "message": "{\n  \"status\": 404,\n  \"statusText\": \"Not Found\",\n  \"message\": \"The resource could not be found.\",\n  \"details\": {\n    \"type\": \"Space\",\n    \"id\": \"Cocoonvans\"\n  },\n  \"request\": {\n    \"url\": \"Cocoonvans\",\n    \"headers\": {\n      \"Accept\": \"application/json, text/plain, */*\",\n      \"Content-Type\": \"application/vnd.contentful.management.v1+json\",\n      \"X-Contentful-User-Agent\": \"app contentful.cli/1.2.28; feature space-export; sdk contentful-management.js/5.18.0; platform node.js/v13.12.0; os macOS/18.7.0;\",\n      \"Authorization\": \"Bearer ...2Wc3Y\",\n      \"user-agent\": \"node.js/v13.12.0\",\n      \"Accept-Encoding\": \"gzip\"\n    },\n    \"method\": \"get\"\n  },\n  \"requestId\": \"ac5bcb2aa3d319d42e414414e7b95f4b\"\n}"
      },
      "data": {
        "status": 404,
        "statusText": "Not Found",
        "message": "The resource could not be found.",
        "details": {
          "type": "Space",
          "id": "Cocoonvans"
        },
        "request": {
          "url": "Cocoonvans",
          "headers": {
            "Accept": "application/json, text/plain, */*",
            "Content-Type": "application/vnd.contentful.management.v1+json",
            "X-Contentful-User-Agent": "app contentful.cli/1.2.28; feature space-export; sdk contentful-management.js/5.18.0; platform node.js/v13.12.0; os macOS/18.7.0;",
            "Authorization": "Bearer ...2Wc3Y",
            "user-agent": "node.js/v13.12.0",
            "Accept-Encoding": "gzip"
          },
          "method": "get"
        },
        "requestId": "ac5bcb2aa3d319d42e414414e7b95f4b"
      }
    }
  }
]